<svg width="13" height="26" viewBox="0 0 13 26" fill="none" xmlns="http://www.w3.org/2000/svg">
<path d="M3.25 8.66667H0V13H3.25V26H8.66667V13H12.5667L13 8.66667H8.66667V6.825C8.66667 5.85 8.88333 5.41667 9.85833 5.41667H13V0H8.88333C4.98333 0 3.25 1.73333 3.25 4.98333V8.66667Z" fill="#6974D8"/>
</svg>
